{
    "builders": [
      {
        "ami_name": "transparent-vault-{{timestamp}}",
        "instance_type": "t2.micro",
        "region": "us-west-2",
        "source_ami": "ami-0e32ec5bc225539f5",
        "ssh_username": "ubuntu",
        "type": "amazon-ebs",
        "tags": {
          "OS_Version": "Ubuntu",
          "Release": "16.04 LTS",
          "Base_AMI_Name": "{{ .SourceAMIName }}",
          "Extra": "{{ .SourceAMITags.TagName }}",
          "Component": "transparent-vault"
        }
      }
    ],
    "provisioners": [
      {
        "type": "shell",
        "script": "./provision-vault.sh"
      }
    ]
  } 